[gd_resource type="NavigationPolygon" format=3 uid="uid://dd4ruu2rrjxb"]

[resource]
resource_name = "002-3-4"
vertices = PackedVector2Array(1923, 1276.97, 2004, 1275.03, 1915.03, 1364, 1915.97, 1284, 1378.97, 1463, 1380, 1461.97, 1380, 1468.97, 1634.97, 1655, 1636, 1653.97, 1636, 1660.97, 1660, 1180.97, 1660, 1178.97, 1667.03, 1186, 1291, 1478.03, 1288.97, 1476, 1300.97, 1476, 1596, 1692.97, 1596, 1648.97, 1602.03, 1655, 1083.36, 1723.88, 1071.42, 1700, 1087.03, 1700, 1093.03, 1706, 1243.36, 1531.88, 1231.42, 1508, 1246.03, 1508, 1251.03, 1513, 1771.03, 1732, 1808.58, 1732, 1796.64, 1755.88, 1606.8, 1813.83, 2004, 1220, 1923, 1227.03, 1963.03, 1220, 1956, 1212.97, 1915.97, 1220, 1860.03, 1284, 1885.61, 1364, 1707, 1178.97, 1707, 1156, 1716.97, 1156, 1789, 1212.97, 1724, 1148.97, 1724, 1124, 1860, 1124, 1860, 1148.97, 1851.97, 1156, 1796.03, 1156, 1867.03, 1156, 1924, 1156, 1924, 1180.97, 1859, 1212.97, 1859, 1163.03, 1931.03, 1188, 1956, 1188, 1860.03, 1220, 1789, 1163.03, 1803.03, 1828, 1828, 1828, 1828, 1884.97, 1734.8, 1941.83, 1730.39, 1940, 1835.03, 1892, 1876, 1892, 1876, 1915.03, 1819.03, 1972, 1764.97, 1972, 1004, 1883.03, 1004, 1860, 1044.97, 1860, 1034.17, 1913.2, 1052, 1852.97, 1052, 1796, 1076.97, 1796, 1268, 1885.61, 1268, 1947.03, 1243.03, 1972, 1213.61, 1972, 1116, 1671.03, 1116, 1668, 1172.97, 1668, 1122, 1677.03, 1180, 1660.97, 1180, 1636, 1204.97, 1636, 1316, 1756.97, 1212, 1628.97, 1212, 1604, 1215.03, 1604, 1221.03, 1610, 1308, 1468.97, 1308, 1435, 1339, 1435, 1339, 1455.97, 1387.03, 1476, 1428, 1476, 1428, 1531.03, 1334.83, 1624.2, 1564, 1756.97, 1564, 1700, 1588.97, 1700, 1602.39, 1812, 1676, 1565.17, 1676, 1508, 1716.97, 1508, 1780, 1533.61, 1780, 1629.17, 1691.36, 1595.88, 1724, 1500.97, 1724, 1444, 1748.97, 1444, 1812, 1469.61, 1812, 1499.03, 1781.83, 1529.2, 1595.03, 1332, 1508.97, 1332, 1452, 1275.03, 1452, 1188, 1492.97, 1188, 1625.2, 1301.83, 1500, 1090.83, 1513.86, 1063.11, 1536, 1040.97, 1558.14, 1063.11, 1572, 1090.83, 1572, 1180.97, 1500, 1180.97, 1853, 1276.97, 1881.2, 1365.83, 1755.36, 1339.88, 1737.21, 1303.58, 1643.03, 1668, 1652.97, 1188, 1731.41, 1300, 1629.61, 1300, 1346.03, 1463, 1291, 1505.97, 1122, 1698.97, 1796, 1820.97, 1700.97, 1940, 1644, 1883.03, 1644, 1853.61, 1579.03, 1188, 1851.97, 1220, 1853, 1227.03, 1796.03, 1220, 1244, 1534.6, 1283.97, 1513, 1699.97, 1186, 1316, 1662.6, 1242.97, 1610, 1316.64, 1659.88, 1244, 1575.03, 1250, 1581.03, 1250, 1602.97, 1333.7, 1625.77, 1845.83, 1401.2, 1756, 1342.6, 1756, 1436.97, 1844, 1405.61, 1844, 1435.03, 1813.83, 1465.2, 1692, 1598.6, 1692, 1660.97, 1764.64, 1659.88, 1764, 1662.6, 1684.97, 1668, 1764, 1724.97, 1269.83, 1881.2, 1114.97, 1706, 1323.03, 1764, 1337.2, 1813.83, 1084, 1726.6, 1642.17, 1849.2, 1796, 1758.6, 1556.97, 1764, 1341.61, 1812, 1084, 1788.97, 1209.2, 1973.83, 1179.03, 2004, 1124.97, 2004, 1094.8, 1973.83, 1090.39, 1972, 1036, 1917.61, 1060.97, 1972, 1036, 1947.03)
polygons = [PackedInt32Array(0, 1, 2, 3), PackedInt32Array(4, 5, 6), PackedInt32Array(7, 8, 9), PackedInt32Array(10, 11, 12), PackedInt32Array(13, 14, 15), PackedInt32Array(16, 17, 18), PackedInt32Array(19, 20, 21, 22), PackedInt32Array(23, 24, 25, 26), PackedInt32Array(27, 28, 29, 30), PackedInt32Array(31, 1, 0, 32, 33), PackedInt32Array(34, 33, 32, 35), PackedInt32Array(36, 3, 2, 37), PackedInt32Array(38, 39, 40, 41), PackedInt32Array(42, 43, 44, 45, 46, 47), PackedInt32Array(48, 49, 50, 51, 52), PackedInt32Array(51, 53, 54, 34, 35, 55), PackedInt32Array(50, 53, 51), PackedInt32Array(45, 48, 52, 46), PackedInt32Array(42, 47, 56), PackedInt32Array(57, 58, 59, 60, 61), PackedInt32Array(62, 63, 64, 65, 66, 60), PackedInt32Array(67, 68, 69, 70), PackedInt32Array(71, 72, 73, 74, 75, 76, 77), PackedInt32Array(78, 79, 80, 81), PackedInt32Array(82, 83, 84, 85), PackedInt32Array(86, 87, 88, 89), PackedInt32Array(90, 91, 92, 93), PackedInt32Array(94, 95, 96, 97), PackedInt32Array(98, 99, 100, 30, 101), PackedInt32Array(102, 103, 104, 105, 106, 107), PackedInt32Array(108, 109, 110, 111, 112, 113), PackedInt32Array(114, 115, 116, 117, 118, 119), PackedInt32Array(120, 121, 122, 123, 124, 125, 126), PackedInt32Array(127, 36, 37, 128, 129, 130), PackedInt32Array(16, 18, 7, 9), PackedInt32Array(16, 9, 131, 30, 100), PackedInt32Array(132, 10, 12, 133, 134), PackedInt32Array(15, 90, 135, 4, 6, 97, 136), PackedInt32Array(137, 81, 80, 85), PackedInt32Array(59, 62, 60), PackedInt32Array(136, 13, 15), PackedInt32Array(138, 57, 61, 139, 140, 141), PackedInt32Array(42, 56, 41, 40), PackedInt32Array(134, 119, 118, 126, 125, 142), PackedInt32Array(143, 51, 55, 144), PackedInt32Array(145, 143, 144, 127, 130, 133), PackedInt32Array(146, 23, 26, 147, 97), PackedInt32Array(90, 93, 135), PackedInt32Array(133, 148, 38, 41, 145), PackedInt32Array(149, 86, 89, 150, 151), PackedInt32Array(6, 94, 97), PackedInt32Array(147, 136, 97), PackedInt32Array(152, 146, 97, 153), PackedInt32Array(154, 153, 97, 155), PackedInt32Array(154, 155, 151, 150), PackedInt32Array(86, 149, 85, 84), PackedInt32Array(80, 82, 85), PackedInt32Array(134, 142, 132), PackedInt32Array(133, 12, 148), PackedInt32Array(129, 128, 156, 157), PackedInt32Array(158, 157, 156, 159), PackedInt32Array(158, 159, 160, 161), PackedInt32Array(158, 161, 111, 110), PackedInt32Array(108, 113, 105, 104), PackedInt32Array(162, 107, 106), PackedInt32Array(163, 162, 106, 164), PackedInt32Array(163, 164, 165), PackedInt32Array(166, 163, 165, 167, 30), PackedInt32Array(168, 169, 137, 85, 170, 171), PackedInt32Array(172, 19, 22, 169, 168), PackedInt32Array(138, 141, 173, 174), PackedInt32Array(174, 173, 30, 29), PackedInt32Array(167, 27, 30), PackedInt32Array(131, 166, 30), PackedInt32Array(175, 98, 101), PackedInt32Array(175, 101, 176, 170), PackedInt32Array(170, 176, 171), PackedInt32Array(177, 172, 168, 74), PackedInt32Array(73, 177, 74), PackedInt32Array(71, 77, 178), PackedInt32Array(71, 178, 179, 180, 181), PackedInt32Array(70, 69, 71, 181, 182, 183), PackedInt32Array(183, 182, 184, 185)]
outlines = [PackedVector2Array(1859, 1163.03, 1859, 1212.97, 1851.97, 1220, 1796.03, 1220, 1789, 1212.97, 1789, 1163.03, 1796.03, 1156, 1851.97, 1156), PackedVector2Array(1923, 1227.03, 1923, 1276.97, 1915.97, 1284, 1860.03, 1284, 1853, 1276.97, 1853, 1227.03, 1860.03, 1220, 1915.97, 1220), PackedVector2Array(1513.86, 1063.11, 1500, 1090.83, 1500, 1180.97, 1492.97, 1188, 1452, 1188, 1452, 1275.03, 1508.97, 1332, 1595.03, 1332, 1625.2, 1301.83, 1629.61, 1300, 1731.41, 1300, 1737.21, 1303.58, 1755.36, 1339.88, 1756, 1342.6, 1756, 1436.97, 1748.97, 1444, 1724, 1444, 1724, 1500.97, 1716.97, 1508, 1676, 1508, 1676, 1565.17, 1691.36, 1595.88, 1692, 1598.6, 1692, 1660.97, 1684.97, 1668, 1643.03, 1668, 1636, 1660.97, 1636, 1653.97, 1634.97, 1655, 1602.03, 1655, 1596, 1648.97, 1596, 1692.97, 1588.97, 1700, 1564, 1700, 1564, 1756.97, 1556.97, 1764, 1323.03, 1764, 1316, 1756.97, 1316, 1662.6, 1316.64, 1659.88, 1333.7, 1625.77, 1334.83, 1624.2, 1428, 1531.03, 1428, 1476, 1387.03, 1476, 1380, 1468.97, 1380, 1461.97, 1378.97, 1463, 1346.03, 1463, 1339, 1455.97, 1339, 1435, 1308, 1435, 1308, 1468.97, 1300.97, 1476, 1288.97, 1476, 1291, 1478.03, 1291, 1505.97, 1283.97, 1513, 1251.03, 1513, 1246.03, 1508, 1231.42, 1508, 1243.36, 1531.88, 1244, 1534.6, 1244, 1575.03, 1250, 1581.03, 1250, 1602.97, 1242.97, 1610, 1221.03, 1610, 1215.03, 1604, 1212, 1604, 1212, 1628.97, 1204.97, 1636, 1180, 1636, 1180, 1660.97, 1172.97, 1668, 1116, 1668, 1116, 1671.03, 1122, 1677.03, 1122, 1698.97, 1114.97, 1706, 1093.03, 1706, 1087.03, 1700, 1071.42, 1700, 1083.36, 1723.88, 1084, 1726.6, 1084, 1788.97, 1076.97, 1796, 1052, 1796, 1052, 1852.97, 1044.97, 1860, 1004, 1860, 1004, 1883.03, 1034.17, 1913.2, 1036, 1917.61, 1036, 1947.03, 1060.97, 1972, 1090.39, 1972, 1094.8, 1973.83, 1124.97, 2004, 1179.03, 2004, 1209.2, 1973.83, 1213.61, 1972, 1243.03, 1972, 1268, 1947.03, 1268, 1885.61, 1269.83, 1881.2, 1337.2, 1813.83, 1341.61, 1812, 1602.39, 1812, 1606.8, 1813.83, 1642.17, 1849.2, 1644, 1853.61, 1644, 1883.03, 1700.97, 1940, 1730.39, 1940, 1734.8, 1941.83, 1764.97, 1972, 1819.03, 1972, 1876, 1915.03, 1876, 1892, 1835.03, 1892, 1828, 1884.97, 1828, 1828, 1803.03, 1828, 1796, 1820.97, 1796, 1758.6, 1796.64, 1755.88, 1808.58, 1732, 1771.03, 1732, 1764, 1724.97, 1764, 1662.6, 1764.64, 1659.88, 1780, 1629.17, 1780, 1533.61, 1781.83, 1529.2, 1812, 1499.03, 1812, 1469.61, 1813.83, 1465.2, 1844, 1435.03, 1844, 1405.61, 1845.83, 1401.2, 1881.2, 1365.83, 1885.61, 1364, 1915.03, 1364, 2004, 1275.03, 2004, 1220, 1963.03, 1220, 1956, 1212.97, 1956, 1188, 1931.03, 1188, 1924, 1180.97, 1924, 1156, 1867.03, 1156, 1860, 1148.97, 1860, 1124, 1724, 1124, 1724, 1148.97, 1716.97, 1156, 1707, 1156, 1707, 1178.97, 1699.97, 1186, 1667.03, 1186, 1660, 1178.97, 1660, 1180.97, 1652.97, 1188, 1579.03, 1188, 1572, 1180.97, 1572, 1090.83, 1558.14, 1063.11, 1536, 1040.97)]
