[gd_resource type="Resource" load_steps=3 format=3]

[ext_resource type="Texture2D" uid="uid://djbyhc4xstaop" path="res://data/graphics/items/common/phatina-key2.png" id="1_25eku"]
[ext_resource type="Script" path="res://sources/resource_types/BaseItem.gd" id="1_71cxl"]


[resource]
script = ExtResource("1_71cxl")
name = "Hungry's Key"
description = "A key that has been hidden a long time ago, seems to open a fancy door"
stackable = true
icon = ExtResource("1_25eku")
weight = 15.0
